id,id_serie,periodo,val
0,0,0,31
1,0,1,35
2,0,2,37
3,0,3,38
4,0,4,33
5,0,5,38
6,0,6,39
7,0,7,40
8,0,8,37
9,0,9,38
10,0,10,38
11,0,11,38
12,0,12,39
13,0,13,40
14,0,14,39
15,0,15,37
16,0,16,42
17,0,17,45
18,0,18,44
19,0,19,39
20,0,20,42
21,0,21,37
22,0,22,42
23,0,23,45
24,0,24,42
25,0,25,40
26,0,26,41
27,0,27,42
28,0,28,49
29,0,29,47
30,0,30,51
31,0,31,46
32,0,32,44
33,0,33,40
34,0,34,51
36,1,0,26
37,1,1,22
38,1,2,24
39,1,3,22
40,1,4,29
41,1,5,30
42,1,6,30
43,1,7,28
44,1,8,29
45,1,9,28
46,1,10,26
47,1,11,38
48,1,12,36
49,1,13,37
50,1,14,35
51,1,15,32
52,1,16,34
53,1,17,39
54,1,18,39
55,1,19,36
56,1,20,37
57,1,21,39
58,1,22,40
59,1,23,48
60,1,24,44
61,1,25,40
62,1,26,42
63,1,27,47
64,1,28,50
65,1,29,52
66,1,30,57
67,1,31,47
68,1,32,48
69,1,33,47
70,1,34,53
72,2,0,40
73,2,1,42
74,2,2,42
75,2,3,48
76,2,4,49
77,2,5,49
78,2,6,49
79,2,7,50
80,2,8,49
81,2,9,47
82,2,10,54
83,2,11,52
84,2,12,54
85,2,13,56
86,2,14,59
87,2,15,55
88,2,16,58
89,2,17,61
90,2,18,64
91,2,19,58
92,2,20,61
93,2,21,62
94,2,22,67
95,2,23,66
96,2,24,67
97,2,25,67
98,2,26,65
99,2,27,65
100,2,28,69
101,2,29,78
102,2,30,74
103,2,31,68
104,2,32,74
105,2,33,71
106,2,34,73
108,3,0,17
109,3,1,21
110,3,2,19
111,3,3,17
112,3,4,22
113,3,5,23
114,3,6,16
115,3,7,25
116,3,8,20
117,3,9,20
118,3,10,25
119,3,11,26
120,3,12,22
121,3,13,18
122,3,14,23
123,3,15,20
124,3,16,23
125,3,17,25
126,3,18,29
127,3,19,26
128,3,20,24
129,3,21,17
130,3,22,23
131,3,23,24
132,3,24,24
133,3,25,26
134,3,26,21
135,3,27,26
136,3,28,30
137,3,29,26
138,3,30,30
139,3,31,27
140,3,32,22
141,3,33,28
142,3,34,28
144,4,0,54
145,4,1,57
146,4,2,60
147,4,3,59
148,4,4,58
149,4,5,60
150,4,6,59
151,4,7,60
152,4,8,60
153,4,9,62
154,4,10,62
155,4,11,61
156,4,12,64
157,4,13,61
158,4,14,64
159,4,15,61
160,4,16,65
161,4,17,63
162,4,18,63
163,4,19,65
164,4,20,63
165,4,21,62
166,4,22,67
167,4,23,68
168,4,24,70
169,4,25,63
170,4,26,63
171,4,27,58
172,4,28,68
173,4,29,65
174,4,30,68
175,4,31,62
176,4,32,65
177,4,33,65
178,4,34,66
180,5,0,17
181,5,1,25
182,5,2,20
183,5,3,22
184,5,4,24
185,5,5,26
186,5,6,25
187,5,7,24
188,5,8,26
189,5,9,28
190,5,10,33
191,5,11,30
192,5,12,35
193,5,13,38
194,5,14,34
195,5,15,29
196,5,16,43
197,5,17,45
198,5,18,40
199,5,19,43
200,5,20,36
201,5,21,40
202,5,22,45
203,5,23,51
204,5,24,49
205,5,25,47
206,5,26,43
207,5,27,46
208,5,28,50
209,5,29,55
210,5,30,58
211,5,31,51
212,5,32,54
213,5,33,51
214,5,34,55
216,6,0,21
217,6,1,26
218,6,2,24
219,6,3,27
220,6,4,27
221,6,5,29
222,6,6,29
223,6,7,28
224,6,8,29
225,6,9,30
226,6,10,31
227,6,11,34
228,6,12,38
229,6,13,35
230,6,14,38
231,6,15,38
232,6,16,41
233,6,17,41
234,6,18,40
235,6,19,39
236,6,20,39
237,6,21,39
238,6,22,47
239,6,23,49
240,6,24,46
241,6,25,46
242,6,26,47
243,6,27,42
244,6,28,50
245,6,29,57
246,6,30,50
247,6,31,54
248,6,32,50
249,6,33,51
250,6,34,57
252,7,0,19
253,7,1,18
254,7,2,22
255,7,3,19
256,7,4,25
257,7,5,22
258,7,6,22
259,7,7,28
260,7,8,23
261,7,9,25
262,7,10,29
263,7,11,31
264,7,12,28
265,7,13,27
266,7,14,34
267,7,15,32
268,7,16,38
269,7,17,43
270,7,18,38
271,7,19,33
272,7,20,39
273,7,21,40
274,7,22,40
275,7,23,50
276,7,24,47
277,7,25,40
278,7,26,47
279,7,27,41
280,7,28,48
281,7,29,54
282,7,30,54
283,7,31,51
284,7,32,48
285,7,33,48
286,7,34,56
288,8,0,40
289,8,1,39
290,8,2,43
291,8,3,42
292,8,4,46
293,8,5,47
294,8,6,49
295,8,7,46
296,8,8,47
297,8,9,49
298,8,10,55
299,8,11,55
300,8,12,54
301,8,13,57
302,8,14,55
303,8,15,55
304,8,16,57
305,8,17,62
306,8,18,64
307,8,19,60
308,8,20,59
309,8,21,57
310,8,22,64
311,8,23,69
312,8,24,69
313,8,25,66
314,8,26,68
315,8,27,62
316,8,28,70
317,8,29,76
318,8,30,72
319,8,31,71
320,8,32,74
321,8,33,70
322,8,34,77
324,9,0,17
325,9,1,16
326,9,2,16
327,9,3,16
328,9,4,15
329,9,5,19
330,9,6,21
331,9,7,16
332,9,8,20
333,9,9,16
334,9,10,22
335,9,11,23
336,9,12,20
337,9,13,19
338,9,14,21
339,9,15,23
340,9,16,23
341,9,17,24
342,9,18,25
343,9,19,20
344,9,20,23
345,9,21,23
346,9,22,26
347,9,23,27
348,9,24,25
349,9,25,23
350,9,26,28
351,9,27,23
352,9,28,30
353,9,29,29
354,9,30,30
355,9,31,31
356,9,32,31
357,9,33,29
358,9,34,32
360,10,0,38
361,10,1,35
362,10,2,34
363,10,3,39
364,10,4,40
365,10,5,41
366,10,6,39
367,10,7,36
368,10,8,41
369,10,9,42
370,10,10,37
371,10,11,40
372,10,12,42
373,10,13,43
374,10,14,37
375,10,15,42
376,10,16,42
377,10,17,47
378,10,18,42
379,10,19,44
380,10,20,39
381,10,21,36
382,10,22,42
383,10,23,47
384,10,24,48
385,10,25,45
386,10,26,43
387,10,27,40
388,10,28,49
389,10,29,52
390,10,30,49
391,10,31,49
392,10,32,45
393,10,33,38
394,10,34,46
396,11,0,28
397,11,1,31
398,11,2,32
399,11,3,31
400,11,4,37
401,11,5,29
402,11,6,39
403,11,7,37
404,11,8,34
405,11,9,36
406,11,10,38
407,11,11,34
408,11,12,40
409,11,13,36
410,11,14,42
411,11,15,44
412,11,16,41
413,11,17,43
414,11,18,48
415,11,19,41
416,11,20,40
417,11,21,40
418,11,22,43
419,11,23,50
420,11,24,46
421,11,25,45
422,11,26,48
423,11,27,45
424,11,28,56
425,11,29,61
426,11,30,57
427,11,31,50
428,11,32,57
429,11,33,55
430,11,34,57
432,12,0,10
433,12,1,13
434,12,2,19
435,12,3,14
436,12,4,24
437,12,5,22
438,12,6,25
439,12,7,21
440,12,8,26
441,12,9,19
442,12,10,26
443,12,11,32
444,12,12,30
445,12,13,25
446,12,14,26
447,12,15,25
448,12,16,34
449,12,17,35
450,12,18,31
451,12,19,32
452,12,20,32
453,12,21,35
454,12,22,38
455,12,23,37
456,12,24,46
457,12,25,36
458,12,26,40
459,12,27,34
460,12,28,48
461,12,29,48
462,12,30,50
463,12,31,41
464,12,32,40
465,12,33,39
466,12,34,53
468,13,0,13
469,13,1,16
470,13,2,17
471,13,3,18
472,13,4,18
473,13,5,16
474,13,6,20
475,13,7,19
476,13,8,18
477,13,9,21
478,13,10,22
479,13,11,20
480,13,12,20
481,13,13,21
482,13,14,21
483,13,15,23
484,13,16,22
485,13,17,25
486,13,18,25
487,13,19,24
488,13,20,24
489,13,21,25
490,13,22,28
491,13,23,31
492,13,24,30
493,13,25,26
494,13,26,27
495,13,27,28
496,13,28,33
497,13,29,32
498,13,30,34
499,13,31,35
500,13,32,36
501,13,33,32
502,13,34,33
504,14,0,10
505,14,1,16
506,14,2,8
507,14,3,18
508,14,4,13
509,14,5,16
510,14,6,17
511,14,7,21
512,14,8,15
513,14,9,17
514,14,10,19
515,14,11,25
516,14,12,23
517,14,13,18
518,14,14,25
519,14,15,17
520,14,16,25
521,14,17,27
522,14,18,27
523,14,19,28
524,14,20,19
525,14,21,21
526,14,22,26
527,14,23,26
528,14,24,27
529,14,25,27
530,14,26,25
531,14,27,20
532,14,28,23
533,14,29,35
534,14,30,28
535,14,31,27
536,14,32,30
537,14,33,29
538,14,34,36
540,15,0,35
541,15,1,33
542,15,2,32
543,15,3,40
544,15,4,34
545,15,5,40
546,15,6,40
547,15,7,36
548,15,8,40
549,15,9,42
550,15,10,35
551,15,11,45
552,15,12,36
553,15,13,39
554,15,14,39
555,15,15,37
556,15,16,46
557,15,17,44
558,15,18,40
559,15,19,42
560,15,20,48
561,15,21,44
562,15,22,44
563,15,23,51
564,15,24,47
565,15,25,50
566,15,26,43
567,15,27,51
568,15,28,46
569,15,29,55
570,15,30,57
571,15,31,49
572,15,32,55
573,15,33,51
574,15,34,55
576,16,0,54
577,16,1,49
578,16,2,51
579,16,3,52
580,16,4,54
581,16,5,56
582,16,6,53
583,16,7,56
584,16,8,58
585,16,9,57
586,16,10,60
587,16,11,58
588,16,12,56
589,16,13,55
590,16,14,60
591,16,15,61
592,16,16,65
593,16,17,66
594,16,18,66
595,16,19,59
596,16,20,62
597,16,21,59
598,16,22,68
599,16,23,70
600,16,24,65
601,16,25,65
602,16,26,67
603,16,27,63
604,16,28,67
605,16,29,70
606,16,30,71
607,16,31,70
608,16,32,69
609,16,33,70
610,16,34,71
612,17,0,34
613,17,1,34
614,17,2,35
615,17,3,35
616,17,4,38
617,17,5,36
618,17,6,37
619,17,7,39
620,17,8,41
621,17,9,38
622,17,10,41
623,17,11,40
624,17,12,41
625,17,13,38
626,17,14,39
627,17,15,42
628,17,16,46
629,17,17,47
630,17,18,43
631,17,19,41
632,17,20,41
633,17,21,41
634,17,22,49
635,17,23,45
636,17,24,50
637,17,25,47
638,17,26,49
639,17,27,49
640,17,28,52
641,17,29,55
642,17,30,50
643,17,31,52
644,17,32,53
645,17,33,50
646,17,34,53
648,18,0,52
649,18,1,59
650,18,2,51
651,18,3,54
652,18,4,53
653,18,5,60
654,18,6,61
655,18,7,53
656,18,8,56
657,18,9,53
658,18,10,59
659,18,11,61
660,18,12,60
661,18,13,61
662,18,14,61
663,18,15,58
664,18,16,61
665,18,17,66
666,18,18,59
667,18,19,61
668,18,20,58
669,18,21,57
670,18,22,62
671,18,23,64
672,18,24,63
673,18,25,58
674,18,26,61
675,18,27,62
676,18,28,70
677,18,29,68
678,18,30,67
679,18,31,66
680,18,32,65
681,18,33,58
682,18,34,66
684,19,0,38
685,19,1,40
686,19,2,46
687,19,3,41
688,19,4,42
689,19,5,44
690,19,6,44
691,19,7,46
692,19,8,48
693,19,9,47
694,19,10,52
695,19,11,48
696,19,12,52
697,19,13,48
698,19,14,54
699,19,15,48
700,19,16,56
701,19,17,56
702,19,18,55
703,19,19,58
704,19,20,55
705,19,21,52
706,19,22,56
707,19,23,64
708,19,24,63
709,19,25,62
710,19,26,63
711,19,27,59
712,19,28,63
713,19,29,69
714,19,30,62
715,19,31,61
716,19,32,67
717,19,33,64
718,19,34,69
720,20,0,68
721,20,1,67
722,20,2,68
723,20,3,70
724,20,4,70
725,20,5,72
726,20,6,71
727,20,7,73
728,20,8,73
729,20,9,75
730,20,10,73
731,20,11,75
732,20,12,74
733,20,13,74
734,20,14,74
735,20,15,75
736,20,16,78
737,20,17,80
738,20,18,82
739,20,19,81
740,20,20,79
741,20,21,78
742,20,22,80
743,20,23,83
744,20,24,85
745,20,25,85
746,20,26,81
747,20,27,83
748,20,28,84
749,20,29,88
750,20,30,84
751,20,31,83
752,20,32,87
753,20,33,83
754,20,34,88
756,21,0,17
757,21,1,15
758,21,2,19
759,21,3,18
760,21,4,18
761,21,5,19
762,21,6,18
763,21,7,20
764,21,8,18
765,21,9,22
766,21,10,23
767,21,11,24
768,21,12,25
769,21,13,25
770,21,14,24
771,21,15,25
772,21,16,28
773,21,17,30
774,21,18,31
775,21,19,27
776,21,20,32
777,21,21,29
778,21,22,36
779,21,23,36
780,21,24,33
781,21,25,35
782,21,26,33
783,21,27,30
784,21,28,37
785,21,29,42
786,21,30,39
787,21,31,38
788,21,32,42
789,21,33,37
790,21,34,42
792,22,0,15
793,22,1,17
794,22,2,15
795,22,3,10
796,22,4,16
797,22,5,15
798,22,6,15
799,22,7,16
800,22,8,13
801,22,9,17
802,22,10,15
803,22,11,17
804,22,12,15
805,22,13,15
806,22,14,15
807,22,15,16
808,22,16,17
809,22,17,18
810,22,18,17
811,22,19,20
812,22,20,22
813,22,21,20
814,22,22,22
815,22,23,18
816,22,24,18
817,22,25,22
818,22,26,21
819,22,27,20
820,22,28,23
821,22,29,27
822,22,30,24
823,22,31,19
824,22,32,23
825,22,33,16
826,22,34,25
828,23,0,21
829,23,1,22
830,23,2,20
831,23,3,20
832,23,4,18
833,23,5,24
834,23,6,25
835,23,7,20
836,23,8,24
837,23,9,19
838,23,10,25
839,23,11,25
840,23,12,29
841,23,13,24
842,23,14,25
843,23,15,26
844,23,16,31
845,23,17,33
846,23,18,31
847,23,19,30
848,23,20,26
849,23,21,25
850,23,22,34
851,23,23,31
852,23,24,33
853,23,25,27
854,23,26,30
855,23,27,28
856,23,28,36
857,23,29,39
858,23,30,36
859,23,31,34
860,23,32,34
861,23,33,35
862,23,34,40
864,24,0,9
865,24,1,12
866,24,2,10
867,24,3,7
868,24,4,13
869,24,5,14
870,24,6,22
871,24,7,20
872,24,8,23
873,24,9,22
874,24,10,18
875,24,11,21
876,24,12,27
877,24,13,19
878,24,14,23
879,24,15,25
880,24,16,33
881,24,17,33
882,24,18,30
883,24,19,28
884,24,20,33
885,24,21,32
886,24,22,40
887,24,23,40
888,24,24,39
889,24,25,36
890,24,26,37
891,24,27,44
892,24,28,43
893,24,29,49
894,24,30,50
895,24,31,48
896,24,32,54
897,24,33,50
898,24,34,58
900,25,0,32
901,25,1,31
902,25,2,34
903,25,3,34
904,25,4,38
905,25,5,37
906,25,6,36
907,25,7,40
908,25,8,34
909,25,9,41
910,25,10,36
911,25,11,40
912,25,12,42
913,25,13,43
914,25,14,40
915,25,15,43
916,25,16,44
917,25,17,48
918,25,18,45
919,25,19,43
920,25,20,45
921,25,21,41
922,25,22,44
923,25,23,52
924,25,24,49
925,25,25,49
926,25,26,47
927,25,27,45
928,25,28,50
929,25,29,54
930,25,30,54
931,25,31,48
932,25,32,49
933,25,33,46
934,25,34,54
936,26,0,29
937,26,1,25
938,26,2,29
939,26,3,25
940,26,4,25
941,26,5,25
942,26,6,31
943,26,7,28
944,26,8,30
945,26,9,27
946,26,10,31
947,26,11,26
948,26,12,27
949,26,13,30
950,26,14,27
951,26,15,27
952,26,16,32
953,26,17,32
954,26,18,31
955,26,19,29
956,26,20,27
957,26,21,25
958,26,22,29
959,26,23,32
960,26,24,31
961,26,25,28
962,26,26,32
963,26,27,29
964,26,28,30
965,26,29,34
966,26,30,31
967,26,31,31
968,26,32,32
969,26,33,27
970,26,34,30
972,27,0,34
973,27,1,35
974,27,2,28
975,27,3,29
976,27,4,29
977,27,5,37
978,27,6,30
979,27,7,35
980,27,8,36
981,27,9,33
982,27,10,33
983,27,11,33
984,27,12,36
985,27,13,34
986,27,14,36
987,27,15,40
988,27,16,36
989,27,17,46
990,27,18,41
991,27,19,40
992,27,20,42
993,27,21,36
994,27,22,44
995,27,23,43
996,27,24,48
997,27,25,48
998,27,26,43
999,27,27,46
1000,27,28,44
1001,27,29,52
1002,27,30,45
1003,27,31,49
1004,27,32,52
1005,27,33,47
1006,27,34,55
1008,28,0,47
1009,28,1,47
1010,28,2,50
1011,28,3,47
1012,28,4,47
1013,28,5,56
1014,28,6,56
1015,28,7,56
1016,28,8,54
1017,28,9,57
1018,28,10,49
1019,28,11,59
1020,28,12,61
1021,28,13,57
1022,28,14,57
1023,28,15,61
1024,28,16,65
1025,28,17,70
1026,28,18,63
1027,28,19,65
1028,28,20,62
1029,28,21,58
1030,28,22,72
1031,28,23,75
1032,28,24,77
1033,28,25,69
1034,28,26,64
1035,28,27,72
1036,28,28,81
1037,28,29,83
1038,28,30,79
1039,28,31,77
1040,28,32,80
1041,28,33,77
1042,28,34,83
1044,29,0,8
1045,29,1,12
1046,29,2,6
1047,29,3,14
1048,29,4,16
1049,29,5,11
1050,29,6,12
1051,29,7,14
1052,29,8,11
1053,29,9,12
1054,29,10,23
1055,29,11,20
1056,29,12,26
1057,29,13,25
1058,29,14,16
1059,29,15,18
1060,29,16,30
1061,29,17,28
1062,29,18,32
1063,29,19,28
1064,29,20,24
1065,29,21,20
1066,29,22,31
1067,29,23,40
1068,29,24,34
1069,29,25,33
1070,29,26,33
1071,29,27,35
1072,29,28,35
1073,29,29,38
1074,29,30,44
1075,29,31,41
1076,29,32,35
1077,29,33,29
1078,29,34,44
1080,30,0,27
1081,30,1,24
1082,30,2,23
1083,30,3,21
1084,30,4,28
1085,30,5,33
1086,30,6,30
1087,30,7,32
1088,30,8,33
1089,30,9,33
1090,30,10,33
1091,30,11,42
1092,30,12,39
1093,30,13,36
1094,30,14,39
1095,30,15,33
1096,30,16,44
1097,30,17,43
1098,30,18,43
1099,30,19,43
1100,30,20,41
1101,30,21,41
1102,30,22,50
1103,30,23,55
1104,30,24,49
1105,30,25,51
1106,30,26,55
1107,30,27,46
1108,30,28,51
1109,30,29,62
1110,30,30,53
1111,30,31,56
1112,30,32,53
1113,30,33,52
1114,30,34,59
1116,31,0,32
1117,31,1,39
1118,31,2,41
1119,31,3,35
1120,31,4,39
1121,31,5,37
1122,31,6,41
1123,31,7,39
1124,31,8,37
1125,31,9,39
1126,31,10,42
1127,31,11,43
1128,31,12,38
1129,31,13,35
1130,31,14,43
1131,31,15,42
1132,31,16,45
1133,31,17,46
1134,31,18,42
1135,31,19,42
1136,31,20,45
1137,31,21,42
1138,31,22,46
1139,31,23,42
1140,31,24,46
1141,31,25,46
1142,31,26,45
1143,31,27,40
1144,31,28,48
1145,31,29,49
1146,31,30,45
1147,31,31,41
1148,31,32,43
1149,31,33,42
1150,31,34,47
1152,32,0,52
1153,32,1,52
1154,32,2,49
1155,32,3,55
1156,32,4,51
1157,32,5,51
1158,32,6,53
1159,32,7,57
1160,32,8,52
1161,32,9,51
1162,32,10,62
1163,32,11,63
1164,32,12,61
1165,32,13,59
1166,32,14,61
1167,32,15,61
1168,32,16,65
1169,32,17,60
1170,32,18,66
1171,32,19,68
1172,32,20,65
1173,32,21,62
1174,32,22,65
1175,32,23,71
1176,32,24,65
1177,32,25,69
1178,32,26,70
1179,32,27,62
1180,32,28,69
1181,32,29,72
1182,32,30,75
1183,32,31,68
1184,32,32,72
1185,32,33,66
1186,32,34,73
1188,33,0,13
1189,33,1,15
1190,33,2,19
1191,33,3,19
1192,33,4,23
1193,33,5,18
1194,33,6,17
1195,33,7,21
1196,33,8,20
1197,33,9,21
1198,33,10,23
1199,33,11,27
1200,33,12,27
1201,33,13,25
1202,33,14,25
1203,33,15,24
1204,33,16,29
1205,33,17,28
1206,33,18,31
1207,33,19,31
1208,33,20,36
1209,33,21,29
1210,33,22,33
1211,33,23,41
1212,33,24,38
1213,33,25,37
1214,33,26,35
1215,33,27,34
1216,33,28,43
1217,33,29,48
1218,33,30,41
1219,33,31,39
1220,33,32,40
1221,33,33,41
1222,33,34,51
1224,34,0,26
1225,34,1,29
1226,34,2,28
1227,34,3,24
1228,34,4,26
1229,34,5,27
1230,34,6,31
1231,34,7,27
1232,34,8,28
1233,34,9,28
1234,34,10,29
1235,34,11,33
1236,34,12,32
1237,34,13,32
1238,34,14,33
1239,34,15,35
1240,34,16,32
1241,34,17,34
1242,34,18,34
1243,34,19,34
1244,34,20,38
1245,34,21,34
1246,34,22,38
1247,34,23,42
1248,34,24,38
1249,34,25,38
1250,34,26,42
1251,34,27,39
1252,34,28,38
1253,34,29,41
1254,34,30,45
1255,34,31,42
1256,34,32,44
1257,34,33,42
1258,34,34,42
1260,35,0,31
1261,35,1,33
1262,35,2,30
1263,35,3,30
1264,35,4,32
1265,35,5,36
1266,35,6,35
1267,35,7,31
1268,35,8,32
1269,35,9,33
1270,35,10,32
1271,35,11,37
1272,35,12,36
1273,35,13,31
1274,35,14,32
1275,35,15,34
1276,35,16,36
1277,35,17,38
1278,35,18,34
1279,35,19,34
1280,35,20,36
1281,35,21,33
1282,35,22,34
1283,35,23,38
1284,35,24,36
1285,35,25,36
1286,35,26,36
1287,35,27,37
1288,35,28,39
1289,35,29,39
1290,35,30,40
1291,35,31,37
1292,35,32,36
1293,35,33,38
1294,35,34,41
1296,36,0,21
1297,36,1,15
1298,36,2,14
1299,36,3,23
1300,36,4,22
1301,36,5,24
1302,36,6,17
1303,36,7,18
1304,36,8,26
1305,36,9,22
1306,36,10,21
1307,36,11,24
1308,36,12,22
1309,36,13,23
1310,36,14,25
1311,36,15,23
1312,36,16,23
1313,36,17,30
1314,36,18,29
1315,36,19,27
1316,36,20,27
1317,36,21,24
1318,36,22,35
1319,36,23,30
1320,36,24,35
1321,36,25,35
1322,36,26,29
1323,36,27,27
1324,36,28,34
1325,36,29,31
1326,36,30,37
1327,36,31,32
1328,36,32,38
1329,36,33,32
1330,36,34,34
1332,37,0,17
1333,37,1,17
1334,37,2,13
1335,37,3,20
1336,37,4,14
1337,37,5,18
1338,37,6,16
1339,37,7,22
1340,37,8,14
1341,37,9,18
1342,37,10,18
1343,37,11,23
1344,37,12,25
1345,37,13,20
1346,37,14,23
1347,37,15,26
1348,37,16,24
1349,37,17,22
1350,37,18,28
1351,37,19,29
1352,37,20,28
1353,37,21,20
1354,37,22,27
1355,37,23,34
1356,37,24,31
1357,37,25,28
1358,37,26,26
1359,37,27,32
1360,37,28,35
1361,37,29,30
1362,37,30,36
1363,37,31,31
1364,37,32,32
1365,37,33,30
1366,37,34,33
