Date,MeanTempUK
2000-01-15,4.3
2000-02-15,5
2000-03-15,6.5
2000-04-15,6.7
2000-05-15,10.8
2000-06-15,13.1
2000-07-15,14.1
2000-08-15,15.2
2000-09-15,13.4
2000-10-15,9.2
2000-11-15,5.8
2000-12-15,4.6
2001-01-15,2.6
2001-02-15,3.4
2001-03-15,4.1
2001-04-15,6.7
2001-05-15,11.4
2001-06-15,12.6
2001-07-15,15.3
2001-08-15,15.2
2001-09-15,12.3
2001-10-15,12.2
2001-11-15,6.8
2001-12-15,3.1
2002-01-15,5
2002-02-15,5.5
2002-03-15,6.5
2002-04-15,8.2
2002-05-15,10.8
2002-06-15,13.2
2002-07-15,14.4
2002-08-15,15.6
2002-09-15,13.2
2002-10-15,8.7
2002-11-15,7.5
2002-12-15,4.8
2003-01-15,3.7
2003-02-15,3.4
2003-03-15,6.7
2003-04-15,8.9
2003-05-15,10.7
2003-06-15,14.6
2003-07-15,16.2
2003-08-15,16.5
2003-09-15,13.1
2003-10-15,8.2
2003-11-15,7.4
2003-12-15,4.3
2004-01-15,4.4
2004-02-15,4.4
2004-03-15,5.7
2004-04-15,8.5
2004-05-15,11.1
2004-06-15,14
2004-07-15,14.4
2004-08-15,16.1
2004-09-15,13.4
2004-10-15,9.4
2004-11-15,7.1
2004-12-15,5
2005-01-15,5.3
2005-02-15,3.7
2005-03-15,6.4
2005-04-15,7.9
2005-05-15,10
2005-06-15,14.1
2005-07-15,15.3
2005-08-15,14.9
2005-09-15,13.8
2005-10-15,11.7
2005-11-15,5.6
2005-12-15,4.2
2006-01-15,3.9
2006-02-15,3.5
2006-03-15,3.9
2006-04-15,7.4
2006-05-15,10.7
2006-06-15,14.5
2006-07-15,17.8
2006-08-15,15
2006-09-15,15.2
2006-10-15,11.7
2006-11-15,7.2
2006-12-15,5.5
2007-01-15,5.9
2007-02-15,5.2
2007-03-15,6.3
2007-04-15,10.2
2007-05-15,10.7
2007-06-15,13.7
2007-07-15,14.3
2007-08-15,14.4
2007-09-15,12.6
2007-10-15,10.3
2007-11-15,6.9
2007-12-15,4.4
2008-01-15,5.3
2008-02-15,4.9
2008-03-15,5.1
2008-04-15,7.1
2008-05-15,12.2
2008-06-15,12.9
2008-07-15,15.3
2008-08-15,15.1
2008-09-15,12.5
2008-10-15,8.7
2008-11-15,6.2
2008-12-15,3.1
2009-01-15,2.8
2009-02-15,3.7
2009-03-15,6.1
2009-04-15,8.9
2009-05-15,10.9
2009-06-15,13.7
2009-07-15,15.2
2009-08-15,15.4
2009-09-15,13.2
2009-10-15,10.4
2009-11-15,7.3
2009-12-15,2.1
2010-01-15,0.9
2010-02-15,1.9
2010-03-15,5.1
2010-04-15,8
2010-05-15,9.8
2010-06-15,14.2
2010-07-15,15.6
2010-08-15,14.2
2010-09-15,12.8
2010-10-15,9.4
2010-11-15,4.3
2010-12-15,-0.9
2011-01-15,3.1
2011-02-15,5.3
2011-03-15,5.8
2011-04-15,10.7
2011-05-15,11
2011-06-15,12.7
2011-07-15,14.2
2011-08-15,14.1
2011-09-15,13.8
2011-10-15,11.3
2011-11-15,8.7
2011-12-15,4.8
2012-01-15,4.7
2012-02-15,4.2
2012-03-15,7.7
2012-04-15,6.3
2012-05-15,10.5
2012-06-15,12.3
2012-07-15,14.1
2012-08-15,15.3
2012-09-15,12
2012-10-15,8.2
2012-11-15,5.8
2012-12-15,3.9
2013-01-15,3.3
2013-02-15,2.8
2013-03-15,2.2
2013-04-15,6.3
2013-05-15,9.5
2013-06-15,12.8
2013-07-15,17
2013-08-15,15.6
2013-09-15,12.8
2013-10-15,11.2
2013-11-15,5.5
2013-12-15,5.7
2014-01-15,4.8
2014-02-15,5.2
2014-03-15,6.7
2014-04-15,9.2
2014-05-15,11.2
2014-06-15,14.2
2014-07-15,16.3
2014-08-15,13.9
2014-09-15,13.9
2014-10-15,11.1
2014-11-15,7.6
2014-12-15,4.4
2015-01-15,3.7
2015-02-15,3.5
2015-03-15,5.5
2015-04-15,7.9
2015-05-15,9.6
2015-06-15,12.6
2015-07-15,14.4
2015-08-15,14.7
2015-09-15,11.9
2015-10-15,10
2015-11-15,8.2
2015-12-15,7.9
